------------------------------------------------------------------------------
RESULTS FOR THE UNIFORMITY OF P-VALUES AND THE PROPORTION OF PASSING SEQUENCES
------------------------------------------------------------------------------
   generator is </home/lab/bytes/idq_qrng_10G.dat>
------------------------------------------------------------------------------
 C1  C2  C3  C4  C5  C6  C7  C8  C9 C10  P-VALUE  PROPORTION  STATISTICAL TEST
------------------------------------------------------------------------------
121 101 110 109 111 117 100 111  91 102  0.677912   1059/1073    Frequency
108 119 102 104 112 103 103 106 100 116  0.944791   1059/1073    BlockFrequency
123 105  95 120 107 100  97 114 109 103  0.596323   1059/1073    CumulativeSums
106 117 106 107 114  96 119 100  96 112  0.768528   1062/1073    CumulativeSums
109 104  97 109 107 112 110 123  90 112  0.664343   1062/1073    Runs
103 119 106 107 115 105 111  98 108 101  0.946683   1055/1073    LongestRun
118 101  93 113 114 124 118  98 104  90  0.245032   1060/1073    Rank
113 135 103  96  86 103 124 110 101 102  0.055890   1060/1073    FFT
 95  95 116 115 104 111 100 108 120 109  0.702957   1064/1073    NonOverlappingTemplate
100 107 116 115 131  94 111 104  93 102  0.270619   1067/1073    NonOverlappingTemplate
118 101 115  99 124 108 128  85  91 104  0.057231   1064/1073    NonOverlappingTemplate
115  94  97 115 114 108 115 118  87 110  0.372869   1059/1073    NonOverlappingTemplate
 96  97 104 106 126 104  99 107 103 131  0.227912   1072/1073    NonOverlappingTemplate
 98 101 103 114  86 115 119 129 106 102  0.184915   1065/1073    NonOverlappingTemplate
118 110 112  96 103  99 106 107 111 111  0.933725   1061/1073    NonOverlappingTemplate
 93  92 113 106 106 102 105 122 115 119  0.474267   1065/1073    NonOverlappingTemplate
 98 114  96  89 106 113 109 115 120 113  0.507081   1060/1073    NonOverlappingTemplate
 98 101 116 127  98 112 106 108  98 109  0.596323   1067/1073    NonOverlappingTemplate
 99 102 109 113 105 111 108 107 117 102  0.978939   1067/1073    NonOverlappingTemplate
116 117  99 111 105 117  84 118 101 105  0.361953   1057/1073    NonOverlappingTemplate
100 103 114 115 105 123 108  93  96 116  0.552135   1062/1073    NonOverlappingTemplate
107  88 117 131  92 104 103 102 118 111  0.139573   1059/1073    NonOverlappingTemplate
 95 122  97 126 103 100 121 120  97  92  0.096200   1062/1073    NonOverlappingTemplate
104  79  97 101 107 111 133 131 103 107  0.014139   1063/1073    NonOverlappingTemplate
100  83 116 106 103  99 124 100 122 120  0.115513   1058/1073    NonOverlappingTemplate
108 111 114 110 108 106  94  99 105 118  0.907054   1067/1073    NonOverlappingTemplate
118 104 132  96  84  93 117 117  95 117  0.024256   1066/1073    NonOverlappingTemplate
110 101 105 119 107 103 116  96 101 115  0.853406   1063/1073    NonOverlappingTemplate
112 105 117 109 100  92  91 120 105 122  0.357337   1065/1073    NonOverlappingTemplate
104 110  96 105 122 111 115  97 105 108  0.819404   1066/1073    NonOverlappingTemplate
126 106 108 112 106 106  99 103 108  99  0.834308   1063/1073    NonOverlappingTemplate
 82 126 112 110 104 110 111 109 117  92  0.166019   1063/1073    NonOverlappingTemplate
100 104 114  97 101 116 106 113 112 110  0.930515   1065/1073    NonOverlappingTemplate
110 112  91 101 103 112 117  95 105 127  0.393675   1068/1073    NonOverlappingTemplate
102 103 115 102 116  93 102 103 119 118  0.672102   1063/1073    NonOverlappingTemplate
111 108  94 112 118 118  95  95 100 122  0.393675   1060/1073    NonOverlappingTemplate
114 119 106  90  96 110  95 111 107 125  0.330446   1062/1073    NonOverlappingTemplate
112  88 121 121  97 106 108 117  95 108  0.310495   1057/1073    NonOverlappingTemplate
 93 120  87 123  95 120 108 119  98 110  0.100602   1065/1073    NonOverlappingTemplate
121 100  97 124 116 109  95 105 104 102  0.492381   1063/1073    NonOverlappingTemplate
112 105 116  99 108  86  96 132  98 121  0.082569   1059/1073    NonOverlappingTemplate
104  97 113 105 104 117 108 114  95 116  0.835935   1062/1073    NonOverlappingTemplate
 89 112 123 121  94 108 120  89 123  94  0.039404   1067/1073    NonOverlappingTemplate
107  97 111 105 122  93 111 105 103 119  0.664343   1065/1073    NonOverlappingTemplate
107  94 110 117 111 100 116  94 126  98  0.377609   1063/1073    NonOverlappingTemplate
110  95 101 111 129 107  99 104  98 119  0.416832   1061/1073    NonOverlappingTemplate
127 110  83 110 101 120 107 100 108 107  0.232384   1053/1073    NonOverlappingTemplate
103 105 115 115 104 106  99 113 101 112  0.965031   1063/1073    NonOverlappingTemplate
128  89 115 103 106  95 100 109 107 121  0.238070   1059/1073    NonOverlappingTemplate
115 108  96 110 111  91 113 115 118  96  0.578944   1061/1073    NonOverlappingTemplate
115 114 118  97 101 112 102  90 114 110  0.619610   1058/1073    NonOverlappingTemplate
 86 100 120 128 115 114 102 109  92 107  0.133011   1066/1073    NonOverlappingTemplate
 96 116 120 112 108 104 107 101 113  96  0.779367   1065/1073    NonOverlappingTemplate
121 118  93  94 113 101 107 101 116 109  0.516355   1068/1073    NonOverlappingTemplate
101 106 106 109  85 117 117  99 117 116  0.430401   1062/1073    NonOverlappingTemplate
 87 124 100  95 120 106 111 103 112 115  0.278280   1063/1073    NonOverlappingTemplate
103 107  97 105 116  98 102 124 112 109  0.755708   1063/1073    NonOverlappingTemplate
109 110 105 114 117 112  87 110 100 109  0.729587   1061/1073    NonOverlappingTemplate
115 110 102 102 102 106 129 109 101  97  0.613779   1062/1073    NonOverlappingTemplate
127 112 112 111  95 102  99 110 105 100  0.625444   1063/1073    NonOverlappingTemplate
128 104 107 108 100  98  82 126 116 104  0.078423   1063/1073    NonOverlappingTemplate
110 113 102 108  96 100 109 123 117  95  0.641012   1057/1073    NonOverlappingTemplate
116 118 112 104 107  94  96 115 111 100  0.727700   1057/1073    NonOverlappingTemplate
 87 104  96 119 113 105  99 115 112 123  0.311892   1062/1073    NonOverlappingTemplate
 96 140 106 101 110 100 107  98 112 103  0.147964   1067/1073    NonOverlappingTemplate
 79 117 107 119  87 111 126 110 103 114  0.040625   1068/1073    NonOverlappingTemplate
118 101  99 108 102 111 117  91 121 105  0.569334   1061/1073    NonOverlappingTemplate
125 119 114 105 107  97  99 108  88 111  0.355807   1056/1073    NonOverlappingTemplate
 95 106 109 107 116 121 122  92 105 100  0.467108   1066/1073    NonOverlappingTemplate
102  96 105 102 117 103 112 111 125 100  0.679846   1064/1073    NonOverlappingTemplate
118 100 103 112 110  96 125 118 107  84  0.197465   1057/1073    NonOverlappingTemplate
124 106 103  93  82 120 119  94 131 101  0.013774   1064/1073    NonOverlappingTemplate
115  92 109 108 119 104 123 103 108  92  0.452946   1063/1073    NonOverlappingTemplate
123  92  78 109 113 119 113  99 113 114  0.071095   1062/1073    NonOverlappingTemplate
126 102  97 110 109  93 111 100 116 109  0.544539   1055/1073    NonOverlappingTemplate
108 108 104 104 118  96 124 104 111  96  0.687573   1058/1073    NonOverlappingTemplate
 88  94 119  97 125 111 116 106 115 102  0.212783   1065/1073    NonOverlappingTemplate
111 103 119  83 123  90 120  94 116 114  0.057231   1065/1073    NonOverlappingTemplate
112 106 103 106 108 110 107  99 102 120  0.967885   1067/1073    NonOverlappingTemplate
 92 117 111 102 112 115 109  97 108 110  0.805776   1069/1073    NonOverlappingTemplate
 97 116 116 101 125  97 112 103 100 106  0.575096   1060/1073    NonOverlappingTemplate
104 108 133  84 106 112 114  90 117 105  0.072762   1061/1073    NonOverlappingTemplate
101 103 103 121 113 103 117 106 108  98  0.862596   1060/1073    NonOverlappingTemplate
102 106 136 100 111  95 100 118 100 105  0.205521   1062/1073    NonOverlappingTemplate
100  94 114 113 107 104 118 100 107 116  0.810926   1060/1073    NonOverlappingTemplate
104 129 106 106 110 111 129  93  92  93  0.086910   1061/1073    NonOverlappingTemplate
104 106 102  84 120  98  97 119 125 118  0.120673   1059/1073    NonOverlappingTemplate
118  83 124 100 130 112 101 110  98  97  0.049305   1060/1073    NonOverlappingTemplate
109 117 114 113 105  97  94  95 114 115  0.666284   1058/1073    NonOverlappingTemplate
117 108 111  86 106 120 101 111  97 116  0.439001   1066/1073    NonOverlappingTemplate
101  97  95 101 114 112 107 129 101 116  0.413478   1066/1073    NonOverlappingTemplate
108  94 106 112 106 108 102 111 130  96  0.503389   1065/1073    NonOverlappingTemplate
 89 103  92 109 112 107 113 111 129 108  0.306331   1066/1073    NonOverlappingTemplate
100 114 107 106 112 101 108 115 104 106  0.987970   1066/1073    NonOverlappingTemplate
106 107 111 121 112  97  90 114 121  94  0.372869   1062/1073    NonOverlappingTemplate
121 111 106 103 106 117  98 101 111  99  0.840776   1064/1073    NonOverlappingTemplate
122 115 116 110  91 103 116  89 113  98  0.278280   1059/1073    NonOverlappingTemplate
 93  97 121 108 113 111  97 109 102 122  0.494209   1068/1073    NonOverlappingTemplate
121  98 107 107 115 102 101 105 109 108  0.921555   1058/1073    NonOverlappingTemplate
106 103 108  93 114 103 119 104 111 112  0.881620   1067/1073    NonOverlappingTemplate
110 101 115 111 103  93 103 105 126 106  0.666284   1060/1073    NonOverlappingTemplate
111 113 108 105  97 105 104 113 104 113  0.984747   1064/1073    NonOverlappingTemplate
119 115  89  99  94 115 108 113  90 131  0.063265   1056/1073    NonOverlappingTemplate
114 110 102  93 113 103 107 117 119  95  0.666284   1067/1073    NonOverlappingTemplate
104  97 100 114 141 113  94  85 112 113  0.019535   1064/1073    NonOverlappingTemplate
116 108 104 117 106  93 118  99  94 118  0.527567   1065/1073    NonOverlappingTemplate
 95 119 114 105 104 129 110  94  95 108  0.288739   1065/1073    NonOverlappingTemplate
 99  95 102  98  97 117 124 109 117 115  0.430401   1056/1073    NonOverlappingTemplate
105  91  98 117 121  96 125 115  98 107  0.245032   1060/1073    NonOverlappingTemplate
110 103  96 133  82 112  92 110 116 119  0.034635   1063/1073    NonOverlappingTemplate
117 109  94 113 117 103 111  92 109 108  0.712516   1062/1073    NonOverlappingTemplate
119 107 114 114 110 105 112  99 102  91  0.755708   1055/1073    NonOverlappingTemplate
109 103 118 106 104 109 108 106 115  95  0.945742   1065/1073    NonOverlappingTemplate
104 108  99 121  94 105 112 116 111 103  0.795339   1059/1073    NonOverlappingTemplate
 99  99 110  91 113 109 115 110 105 122  0.650740   1059/1073    NonOverlappingTemplate
102 119 117 108 106 102  98 107 119  95  0.718227   1064/1073    NonOverlappingTemplate
107 104  94 108 117 114 120 102 105 102  0.821083   1057/1073    NonOverlappingTemplate
108 112 102 110 115  98 109 119 110  90  0.731471   1065/1073    NonOverlappingTemplate
115 109 102  99 122 107  87 111 108 113  0.554039   1058/1073    NonOverlappingTemplate
109 107 105 108 116 100 101  93 121 113  0.775770   1060/1073    NonOverlappingTemplate
126  97  97 104 111 120  97 101 105 115  0.440732   1063/1073    NonOverlappingTemplate
102  99 111  94 115 108 117 110 109 108  0.895373   1067/1073    NonOverlappingTemplate
 90 114  94 106 121 105 109 120 105 109  0.503389   1064/1073    NonOverlappingTemplate
103  98 134 111 105 106 103 107 100 106  0.481476   1058/1073    NonOverlappingTemplate
106 107 113 117 106 116 103  73 131 101  0.027685   1059/1073    NonOverlappingTemplate
104 108 111 118 110  96 109 118 105  94  0.800579   1061/1073    NonOverlappingTemplate
 92 105 111 107 107 106 108 126 103 108  0.755708   1064/1073    NonOverlappingTemplate
106 106 115  88 111  95 111 111 114 116  0.637119   1060/1073    NonOverlappingTemplate
106  86  90 118 101 117 109 122 110 114  0.218093   1062/1073    NonOverlappingTemplate
 94 119 104 116 108 113 104  97 114 104  0.772157   1063/1073    NonOverlappingTemplate
102 109 104 100 114 116 113  97 126  92  0.458231   1065/1073    NonOverlappingTemplate
106  99 108 106  95  95 109 128 102 125  0.294073   1065/1073    NonOverlappingTemplate
114  93 117 110 132 103 103 101  93 107  0.235783   1059/1073    NonOverlappingTemplate
 99 112 122 112  97 107 111 106 104 103  0.875901   1060/1073    NonOverlappingTemplate
126 111  97 113 106  97  83 132 111  97  0.034635   1063/1073    NonOverlappingTemplate
105 117  82 100 126 108 103 109  99 124  0.117425   1062/1073    NonOverlappingTemplate
 93 118 116 109 102 114 102 117 104  98  0.693353   1061/1073    NonOverlappingTemplate
116  98  96  98 116 108 107 115 108 111  0.840776   1062/1073    NonOverlappingTemplate
119 106 105 107 123  97  96  98 119 103  0.523820   1053/1073    NonOverlappingTemplate
107  97 112  97  99 121 115 106 115 104  0.757550   1062/1073    NonOverlappingTemplate
 95  96 107 109  99 102 123 101 109 132  0.215957   1064/1073    NonOverlappingTemplate
107 106 100 110 116 116 113  92 105 108  0.871532   1064/1073    NonOverlappingTemplate
107  94  93  89 121 129 104  91 121 124  0.019163   1055/1073    NonOverlappingTemplate
127  99  93 103 120 108 131  95 102  95  0.062526   1060/1073    NonOverlappingTemplate
 90 110 108 106 121 115 111 106 101 105  0.763056   1063/1073    NonOverlappingTemplate
110 112 105 117  88  92 119 113 106 111  0.474267   1062/1073    NonOverlappingTemplate
103 111 100 102  97 101 110 110 126 113  0.725810   1064/1073    NonOverlappingTemplate
119 120  89 112 111 102  88 120  98 114  0.174809   1059/1073    NonOverlappingTemplate
 97  98 105 106 112 120 101 107 117 110  0.842378   1059/1073    NonOverlappingTemplate
105 118 108 103 105  99 101 116 104 114  0.935820   1069/1073    NonOverlappingTemplate
 95  95 116 115 105 110 100 108 120 109  0.714422   1064/1073    NonOverlappingTemplate
113 108 121  99 104 107 100  94 118 109  0.733353   1062/1073    NonOverlappingTemplate
111  86 106 113 123 103 119  92  97 123  0.124671   1062/1073    NonOverlappingTemplate
107 116 106 106 116 100 109 112 108  93  0.904517   1058/1073    NonOverlappingTemplate
105 117  91 108 100 112 107  92 114 127  0.321792   1060/1073    NonOverlappingTemplate
105 101 115 120 110  96  99 102 124 101  0.571253   1060/1073    NonOverlappingTemplate
113 108 102 110 106 105 127 105  95 102  0.733353   1064/1073    OverlappingTemplate
109 119 110  99 100 108 111 116 111  90  0.710608   1059/1073    Universal
108  92 107 109 106 106 114 123 113  95  0.668224   1065/1073    ApproximateEntropy
 58  69  69  62  67  55  70  62  67  63  0.936063    637/642     RandomExcursions
 66  73  68  48  71  75  55  62  64  60  0.365877    634/642     RandomExcursions
 60  64  73  56  61  57  75  62  61  73  0.659882    632/642     RandomExcursions
 59  63  54  73  58  68  74  55  69  69  0.569124    635/642     RandomExcursions
 69  61  52  67  60  65  66  74  64  64  0.850337    635/642     RandomExcursions
 59  56  65  56  46  76  72  77  60  75  0.078086    639/642     RandomExcursions
 50  52  73  72  59  67  70  69  70  60  0.360699    639/642     RandomExcursions
 68  50  66  65  72  67  56  58  71  69  0.611108    640/642     RandomExcursions
 59  67  57  79  65  62  63  67  64  59  0.794626    635/642     RandomExcursionsVariant
 63  59  72  68  55  65  55  67  67  71  0.811993    635/642     RandomExcursionsVariant
 60  75  52  49  66  66  62  78  61  73  0.183422    637/642     RandomExcursionsVariant
 55  77  62  55  63  56  63  67  80  64  0.318609    638/642     RandomExcursionsVariant
 59  80  64  57  51  61  60  69  68  73  0.342949    637/642     RandomExcursionsVariant
 62  71  55  65  49  71  59  77  65  68  0.376371    635/642     RandomExcursionsVariant
 64  58  52  68  70  64  80  59  65  62  0.524727    636/642     RandomExcursionsVariant
 71  69  47  55  71  64  70  59  67  69  0.420150    639/642     RandomExcursionsVariant
 56  77  60  61  55  77  55  73  62  66  0.304586    636/642     RandomExcursionsVariant
 56  53  72  72  59  63  67  67  67  66  0.761596    634/642     RandomExcursionsVariant
 56  56  64  64  77  71  56  80  56  62  0.244941    636/642     RandomExcursionsVariant
 60  56  82  52  64  73  54  59  70  72  0.147659    635/642     RandomExcursionsVariant
 57  67  67  57  63  71  51  71  66  72  0.630612    634/642     RandomExcursionsVariant
 56  65  65  63  59  53  67  74  58  82  0.300009    635/642     RandomExcursionsVariant
 54  67  66  58  65  60  65  78  83  46  0.059452    636/642     RandomExcursionsVariant
 56  64  55  68  66  67  71  63  73  59  0.820480    639/642     RandomExcursionsVariant
 50  63  64  71  62  79  64  71  62  56  0.414525    639/642     RandomExcursionsVariant
 52  67  65  67  70  69  68  68  47  69  0.445973    637/642     RandomExcursionsVariant
110  94 114 118 112 108 120  99 100  98  0.648795   1059/1073    Serial
111 104 101 116 115 113 103 114  86 110  0.629335   1061/1073    Serial
 97  99  97 106 131 114  91  93 127 118  0.042653   1060/1073    LinearComplexity


- - - - - - - - - - - - - - - - - - - - - - - - - - - - - - - - - - - - - - - - -
The minimum pass rate for each statistical test with the exception of the
random excursion (variant) test is approximately = 1052 for a
sample size = 1073 binary sequences.

The minimum pass rate for the random excursion (variant) test
is approximately = 628 for a sample size = 642 binary sequences.

For further guidelines construct a probability table using the MAPLE program
provided in the addendum section of the documentation.
- - - - - - - - - - - - - - - - - - - - - - - - - - - - - - - - - - - - - - - - -