------------------------------------------------------------------------------
RESULTS FOR THE UNIFORMITY OF P-VALUES AND THE PROPORTION OF PASSING SEQUENCES
------------------------------------------------------------------------------
   generator is </home/lab/bytes/10G_conditioned_from_qrng_quantropi>
------------------------------------------------------------------------------
 C1  C2  C3  C4  C5  C6  C7  C8  C9 C10  P-VALUE  PROPORTION  STATISTICAL TEST
------------------------------------------------------------------------------
123 119 100 110  99  98 118 110 109  87  0.302206   1059/1073    Frequency
 94 107  95 114 123 115  99 113 109 104  0.592453   1063/1073    BlockFrequency
120 118 112 109  94 109 106  87 108 110  0.490556   1057/1073    CumulativeSums
123 106 102 115 108  99  99 102 108 111  0.848719   1061/1073    CumulativeSums
109 111 109 128 103 107  96  96 107 107  0.662401   1061/1073    Runs
103 121 111 103 100  98 114 110  97 116  0.766708   1058/1073    LongestRun
111 105  98 117  89 105 100 116 123 109  0.476065   1067/1073    Rank
122  95  99 104 114 111  98  99 108 123  0.485099   1066/1073    FFT
113 103 100 129  89 106  91 104 120 118  0.133727   1064/1073    NonOverlappingTemplate
118 105  97 104 101 109 107 130  97 105  0.486915   1055/1073    NonOverlappingTemplate
109 105 123 119 100 107 115 107  95  93  0.529444   1055/1073    NonOverlappingTemplate
104 115  97  90 125  97 109 114 117 105  0.371297   1060/1073    NonOverlappingTemplate
 99  98 105 116 109  94  97 130 113 112  0.333366   1065/1073    NonOverlappingTemplate
109  98 126 121  98 115  79 107 114 106  0.086910   1063/1073    NonOverlappingTemplate
110 101  92 121 109 100 107 113 100 120  0.613779   1060/1073    NonOverlappingTemplate
101 115 120 114 107 104 109 101 105  97  0.883031   1059/1073    NonOverlappingTemplate
102  94 102 128 103  97 114 118 108 107  0.451190   1058/1073    NonOverlappingTemplate
107 107  94 126  96 129  90 120 110  94  0.056222   1061/1073    NonOverlappingTemplate
105 110  93 103 120 113 113 108 108 100  0.848719   1063/1073    NonOverlappingTemplate
 88  94 117 104  98 114 109 123 122 104  0.224601   1066/1073    NonOverlappingTemplate
116 113 105  98 117  98 102 113 112  99  0.835935   1060/1073    NonOverlappingTemplate
115 125 105  86  93 108 121 112 108 100  0.204500   1058/1073    NonOverlappingTemplate
108  98 109  99 111 115  99 110 107 117  0.926107   1059/1073    NonOverlappingTemplate
101  94 105 113 102  87 124 117 118 112  0.258198   1058/1073    NonOverlappingTemplate
100  83 114 126 112 112 103  99 119 105  0.198458   1065/1073    NonOverlappingTemplate
102  99 127 112 122 114  88 126  87  96  0.025352   1066/1073    NonOverlappingTemplate
109 107 116 117 100 123  96 106  95 104  0.621554   1065/1073    NonOverlappingTemplate
118 116 102 103  91 113 102 106 107 115  0.755708   1059/1073    NonOverlappingTemplate
 94 112  98  98 110 125 104 109 109 114  0.631281   1064/1073    NonOverlappingTemplate
102 100 126  97 119 109 104 110 105 101  0.644904   1060/1073    NonOverlappingTemplate
 89 111 115  89 105 112  99 120 130 103  0.110545   1060/1073    NonOverlappingTemplate
101 114  87 111 109 104  99 107 121 120  0.454704   1063/1073    NonOverlappingTemplate
107 119 111 113 115 104  94 102  93 115  0.662401   1063/1073    NonOverlappingTemplate
103 110  99  98 116 114 117 111 111  94  0.777571   1066/1073    NonOverlappingTemplate
120  86  92 108 107 111 108 114 102 125  0.231260   1058/1073    NonOverlappingTemplate
126  91  98 114 107 108  97 106 109 117  0.445946   1058/1073    NonOverlappingTemplate
115 105 100 107 105 117  99 106 113 106  0.963549   1061/1073    NonOverlappingTemplate
116  99 117 109  98  88 109 118 115 104  0.503389   1065/1073    NonOverlappingTemplate
107  94 103 112 106 133 104 107 103 104  0.474267   1065/1073    NonOverlappingTemplate
130 116 117 118 111 110  91  92 103  85  0.046146   1061/1073    NonOverlappingTemplate
102 102 112  76 121 119  99 120 115 107  0.074894   1062/1073    NonOverlappingTemplate
 94 112 111 107 102 108  94 115 124 106  0.627390   1067/1073    NonOverlappingTemplate
117 106 111  98 119 107 113 104  94 104  0.809215   1062/1073    NonOverlappingTemplate
 99 103 120 105 100  96 126 103 119 102  0.432114   1061/1073    NonOverlappingTemplate
 86 119  92 102  98 117 118 119 122 100  0.104598   1058/1073    NonOverlappingTemplate
123 103 105  94 100 106 124 114 108  96  0.444204   1061/1073    NonOverlappingTemplate
 96 104 113  92 113 105 112 101 113 124  0.571253   1061/1073    NonOverlappingTemplate
111 101 107 101  86 118 108 121 112 108  0.518218   1064/1073    NonOverlappingTemplate
116 122 106  98 105 118  95 104 101 108  0.681780   1060/1073    NonOverlappingTemplate
121  98 112 119  89 103 107 121 101 102  0.371297   1065/1073    NonOverlappingTemplate
109 113 112  94 109 121 105  97  98 115  0.701040   1062/1073    NonOverlappingTemplate
104 109  96 120  98 114 109 123  97 103  0.578944   1064/1073    NonOverlappingTemplate
 97 108 131 110  94 110 110 100 102 111  0.437274   1062/1073    NonOverlappingTemplate
101 113 104 105 112 102 120 105 108 103  0.962794   1063/1073    NonOverlappingTemplate
112  90 100  91 103 103 127 115 108 124  0.156775   1056/1073    NonOverlappingTemplate
109 108 103 117 104 107 105 112 102 106  0.995065   1061/1073    NonOverlappingTemplate
115  98 102 114 110  95 110 115 116  98  0.772157   1064/1073    NonOverlappingTemplate
128 121 102 116  93 105  93  93 109 113  0.169490   1054/1073    NonOverlappingTemplate
100 106 125  99  91 120 109 125 100  98  0.194510   1065/1073    NonOverlappingTemplate
 99 109 108  99 112  99 117 120 103 107  0.856497   1066/1073    NonOverlappingTemplate
103 104 100 101 104 108 114 108  97 134  0.406814   1067/1073    NonOverlappingTemplate
117 109 102 105  99 110 124 101 105 101  0.804049   1069/1073    NonOverlappingTemplate
 99 116 117  96 120 104  88 104 121 108  0.320364   1062/1073    NonOverlappingTemplate
107 119 118 106  98 111 111 104 106  93  0.791821   1061/1073    NonOverlappingTemplate
101 108 105 103 102 120 101 106 126 101  0.699121   1058/1073    NonOverlappingTemplate
106  99 109 111 105 109 116 110  96 112  0.961257   1064/1073    NonOverlappingTemplate
101 115  95 120 103 112  97 113  95 122  0.440732   1061/1073    NonOverlappingTemplate
106  99 105  93  93 108 114 129 131  95  0.066298   1067/1073    NonOverlappingTemplate
113 107 108 114 103 104 102 108 106 108  0.998381   1052/1073    NonOverlappingTemplate
 95 115 103 104 101 103 123 121  93 115  0.408474   1068/1073    NonOverlappingTemplate
104 102 120 113 107 108  92  99 129  99  0.345215   1055/1073    NonOverlappingTemplate
104  97 120 113  98 109 103 102 123 104  0.679846   1063/1073    NonOverlappingTemplate
 88 120 109 118 125 115 109  99  99  91  0.146407   1065/1073    NonOverlappingTemplate
113 107  91 106 108 116 118 105 108 101  0.832676   1060/1073    NonOverlappingTemplate
107 106 109 111  95 117 105 102 110 111  0.965031   1060/1073    NonOverlappingTemplate
 91  96 112  99 103 107 106 135 113 111  0.195491   1061/1073    NonOverlappingTemplate
102 112 114 109  99 127 111 115  87  97  0.295418   1057/1073    NonOverlappingTemplate
104 113 108 133  93  95 114 100 113 100  0.234646   1063/1073    NonOverlappingTemplate
108 112  95 105 110 120 107 108 113  95  0.835935   1061/1073    NonOverlappingTemplate
113 109 106 109 109 122 121 102  97  85  0.343719   1063/1073    NonOverlappingTemplate
104 111  93 113 114  95 100 116 119 108  0.660459   1065/1073    NonOverlappingTemplate
109 110  88 117  92  94 113 124 110 116  0.213837   1060/1073    NonOverlappingTemplate
 98  92 120 114 114  91 118 108 114 104  0.398573   1065/1073    NonOverlappingTemplate
119 110 112 111 101  93 112  93 111 111  0.704873   1064/1073    NonOverlappingTemplate
 85 107 108 121 113 110 121  92 113 103  0.261879   1064/1073    NonOverlappingTemplate
 96 117 103 102  92 119 104 115 115 110  0.609895   1056/1073    NonOverlappingTemplate
103 114  81 122  99 107 107 117 116 107  0.254556   1063/1073    NonOverlappingTemplate
108 113 113  99 110 114 118  92 107  99  0.773966   1062/1073    NonOverlappingTemplate
109 107 104 110 110 103 111 123 102  94  0.851851   1056/1073    NonOverlappingTemplate
 97  98 109  85 127 103 104 114 125 111  0.127400   1061/1073    NonOverlappingTemplate
108 103 128 103 102 111  96 113 103 106  0.695277   1057/1073    NonOverlappingTemplate
118 113 103  99 121 106  91  99 110 113  0.588587   1064/1073    NonOverlappingTemplate
 95 115  93  92  97 108 115 115 122 121  0.215957   1064/1073    NonOverlappingTemplate
 92  92 101 123 122  97 112 102 103 129  0.087901   1068/1073    NonOverlappingTemplate
127 109  96  90 105 105 112 114 113 102  0.442466   1059/1073    NonOverlappingTemplate
117 106 106 117 103 102 121 113  76 112  0.135168   1062/1073    NonOverlappingTemplate
119  93 110 109 102 126 112 114 101  87  0.232384   1060/1073    NonOverlappingTemplate
119 120 105 113  93 107  99 103 113 101  0.683712   1066/1073    NonOverlappingTemplate
106 119 104 104 104 112 120  94 108 102  0.812633   1063/1073    NonOverlappingTemplate
111 100 104 109  99 107 109 120 112 102  0.945742   1055/1073    NonOverlappingTemplate
112 105 101 112  87 120 113 107 113 103  0.639066   1062/1073    NonOverlappingTemplate
 99 100 112 119  97 103 118 115 103 107  0.779367   1064/1073    NonOverlappingTemplate
 91  91 120 111 108  96 117 133  94 112  0.053292   1064/1073    NonOverlappingTemplate
106 105 120 114 100  94 118 114 108  94  0.606013   1064/1073    NonOverlappingTemplate
104 106  99 123 127 105 103  97 104 105  0.527567   1064/1073    NonOverlappingTemplate
123 106 107  87 109 104  97 129  97 114  0.157597   1066/1073    NonOverlappingTemplate
106 118 110 105 115 103 103 106  90 117  0.759389   1065/1073    NonOverlappingTemplate
 94 107 106 112  98 114 125  97 118 102  0.497873   1065/1073    NonOverlappingTemplate
108 109 114 127 103 117 107  90  90 108  0.294073   1062/1073    NonOverlappingTemplate
130  96  91 111 101 114 113 112 108  97  0.280869   1057/1073    NonOverlappingTemplate
 81 107 115 124 124 114 118 104  91  95  0.038451   1065/1073    NonOverlappingTemplate
104 121 105  92 123  98 108 116 117  89  0.217023   1061/1073    NonOverlappingTemplate
114 103  98 106 107 113 113 118 102  99  0.910796   1067/1073    NonOverlappingTemplate
120 104 122 101 105 120 109 103  91  98  0.432114   1055/1073    NonOverlappingTemplate
 91 106 105 121 101 100 119 100 112 118  0.510783   1065/1073    NonOverlappingTemplate
114 104 121 101 103 101 100 109 109 111  0.919225   1056/1073    NonOverlappingTemplate
115 116  97 110  90  99 122 108 103 113  0.507081   1058/1073    NonOverlappingTemplate
107 119  85  99  98 113 111 109 116 116  0.413478   1061/1073    NonOverlappingTemplate
116 104 101 107  90 113 117 117  87 121  0.233513   1064/1073    NonOverlappingTemplate
 94 106 111 125 114  95 102 121 102 103  0.435551   1066/1073    NonOverlappingTemplate
 98 103  98 123 114 122 101 100  90 124  0.171248   1062/1073    NonOverlappingTemplate
 90 102 115 121  97  99 118 119 110 102  0.376025   1067/1073    NonOverlappingTemplate
 99 123 102  94 106  98 103 113 105 130  0.273155   1064/1073    NonOverlappingTemplate
 90 109 112 113  88 133 101 123  94 110  0.042912   1063/1073    NonOverlappingTemplate
115 103 106 105 111 112 101  97 111 112  0.970593   1059/1073    NonOverlappingTemplate
120 112  90 102 111 122  92 103 120 101  0.264354   1059/1073    NonOverlappingTemplate
 98 106 109 108 119 119  93 109  97 115  0.646849   1066/1073    NonOverlappingTemplate
115 113 115 105 113 103  96 103 101 109  0.929426   1059/1073    NonOverlappingTemplate
113 114 113 119  96 101 109 106 104  98  0.848719   1065/1073    NonOverlappingTemplate
110 114 107 108 111 108 106  99  87 123  0.590520   1059/1073    NonOverlappingTemplate
102 110 124 104 106  97 113 106 109 102  0.862596   1064/1073    NonOverlappingTemplate
 86 114  96 103 118 119 104 122 105 106  0.306331   1068/1073    NonOverlappingTemplate
111 102  98  98 100 103 109 106 119 127  0.571253   1060/1073    NonOverlappingTemplate
103 113  88  84 104 108 104 121 128 120  0.056893   1056/1073    NonOverlappingTemplate
129 103  95 109 103 104 115 115 110  90  0.328993   1065/1073    NonOverlappingTemplate
105 112  84  93 110 103 124 109 111 122  0.198458   1060/1073    NonOverlappingTemplate
 93 115 124 108 112 104 117  81  99 120  0.094063   1062/1073    NonOverlappingTemplate
113 107 103  91 114  92 104 115 111 123  0.468893   1062/1073    NonOverlappingTemplate
104 105 103 108  93  90 113 129 119 109  0.271885   1062/1073    NonOverlappingTemplate
 96 100 118 113 109 119 109 104 112  93  0.675976   1062/1073    NonOverlappingTemplate
 91 101 120 114 125  96 107 103 108 108  0.428692   1066/1073    NonOverlappingTemplate
117 101 102 103 107 113 115 110 110  95  0.904517   1064/1073    NonOverlappingTemplate
114 120 121  94  96  97 113 116  96 106  0.371297   1065/1073    NonOverlappingTemplate
101 114 100 102 109 119 104  92 112 120  0.650740   1063/1073    NonOverlappingTemplate
 98 106 115  95 113 101 130  92 100 123  0.150325   1063/1073    NonOverlappingTemplate
107 107 110  92 119 107 112 113 107  99  0.859561   1068/1073    NonOverlappingTemplate
114 119 119  96 105 108 107 100 103 102  0.819404   1052/1073    NonOverlappingTemplate
 98 101 111 125 110 105 121 101 103  98  0.588587   1065/1073    NonOverlappingTemplate
 99  99 115 106 100 117 117 112  91 117  0.565500   1060/1073    NonOverlappingTemplate
 99 103 106  97  98 115 110 115 131  99  0.374445   1061/1073    NonOverlappingTemplate
113 103 100 130  89 106  90 103 120 119  0.099485   1064/1073    NonOverlappingTemplate
 88 107 108 107  97 107 110 118 118 113  0.637119   1066/1073    NonOverlappingTemplate
 98  97 106 113 119  99 107 123 101 110  0.658516   1064/1073    NonOverlappingTemplate
113  95 102 103 121  99 111 117 113  99  0.687573   1060/1073    NonOverlappingTemplate
120 119 100 107  98  96 118 116 111  88  0.298120   1064/1073    NonOverlappingTemplate
 90  96 120  97 113 107 116 118 100 116  0.368166   1065/1073    NonOverlappingTemplate
115 118 113 102 105  81 115  98 117 109  0.276992   1060/1073    OverlappingTemplate
109 117  95  96 113 110 100 114 106 113  0.822757   1059/1073    Universal
101 121  89  99 108 114  99 114 105 123  0.371297   1066/1073    ApproximateEntropy
 66  68  60  61  65  73  79  55  60  57  0.556333    638/644     RandomExcursions
 67  70  62  69  69  59  57  75  64  52  0.653383    633/644     RandomExcursions
 65  58  73  52  65  75  65  67  56  68  0.594901    636/644     RandomExcursions
 65  57  63  63  52  59  73  67  71  74  0.617605    633/644     RandomExcursions
 57  63  47  62  66  61  75  76  73  64  0.277857    636/644     RandomExcursions
 69  68  49  51  58  61  70  74  77  67  0.191363    634/644     RandomExcursions
 51  65  57  71  59  53  77  73  82  56  0.058289    642/644     RandomExcursions
 61  56  58  56  72  54  70  74  68  75  0.389747    640/644     RandomExcursions
 67  60  70  58  81  57  65  66  60  60  0.598138    636/644     RandomExcursionsVariant
 70  53  71  64  69  64  66  61  63  63  0.921392    636/644     RandomExcursionsVariant
 68  65  64  61  68  61  76  49  70  62  0.617605    637/644     RandomExcursionsVariant
 66  65  65  61  58  69  67  61  50  82  0.384362    634/644     RandomExcursionsVariant
 74  64  69  58  56  65  62  70  52  74  0.537299    635/644     RandomExcursionsVariant
 74  66  67  70  60  68  69  55  46  69  0.355569    637/644     RandomExcursionsVariant
 68  51  87  78  68  63  57  62  49  61  0.025460    635/644     RandomExcursionsVariant
 66  70  51  76  81  61  61  59  69  50  0.116875    637/644     RandomExcursionsVariant
 68  70  54  62  59  59  78  59  73  62  0.534146    639/644     RandomExcursionsVariant
 48  56  71  77  60  70  59  55  65  83  0.056583    639/644     RandomExcursionsVariant
 58  70  58  62  62  57  61  62  76  78  0.524727    641/644     RandomExcursionsVariant
 60  59  58  60  73  70  67  72  60  65  0.860655    640/644     RandomExcursionsVariant
 58  66  54  55  67  66  60  77  69  72  0.540457    640/644     RandomExcursionsVariant
 60  63  57  80  58  55  65  72  68  66  0.515367    642/644     RandomExcursionsVariant
 57  65  69  75  71  62  55  54  61  75  0.460664    637/644     RandomExcursionsVariant
 52  77  68  57  66  66  60  81  58  59  0.227773    636/644     RandomExcursionsVariant
 56  65  61  63  69  51  66  62  74  77  0.481618    638/644     RandomExcursionsVariant
 62  46  73  63  68  57  64  61  85  65  0.106601    639/644     RandomExcursionsVariant
 99 101 113 109  93  96 102 106 130 124  0.204500   1058/1073    Serial
106 114  96 100 111  89 109 116 115 117  0.578944   1064/1073    Serial
119 107 121  90 117  92 107 103 117 100  0.314699   1064/1073    LinearComplexity


- - - - - - - - - - - - - - - - - - - - - - - - - - - - - - - - - - - - - - - - -
The minimum pass rate for each statistical test with the exception of the
random excursion (variant) test is approximately = 1052 for a
sample size = 1073 binary sequences.

The minimum pass rate for the random excursion (variant) test
is approximately = 629 for a sample size = 644 binary sequences.

For further guidelines construct a probability table using the MAPLE program
provided in the addendum section of the documentation.
- - - - - - - - - - - - - - - - - - - - - - - - - - - - - - - - - - - - - - - - -