0,File-bytes,Entropy,Chi-square,Mean,Monte-Carlo-Pi,Serial-Correlation
1,2147483648,7.985673,43533750.780410,121.325411,3.275371,0.006647
2,Value,Occurrences,Fraction
3,0,12881419,0.005998
3,1,11254131,0.005241
3,2,11286941,0.005256
3,3,9819182,0.004572
3,4,11260480,0.005244
3,5,9876458,0.004599
3,6,9832714,0.004579
3,7,8586598,0.003998
3,8,11696420,0.005447
3,9,10238116,0.004767
3,10,10282829,0.004788
3,11,8968842,0.004176
3,12,10181764,0.004741
3,13,8955601,0.004170
3,14,8914645,0.004151
3,15,7805546,0.003635
3,16,11690867,0.005444
3,17,10223147,0.004761
3,18,10259598,0.004777
3,19,8935703,0.004161
3,20,10247531,0.004772
3,21,9001859,0.004192
3,22,8974810,0.004179
3,23,7845467,0.003653
3,24,10563556,0.004919
3,25,9266295,0.004315
3,26,9312474,0.004336
3,27,8134369,0.003788
3,28,9226455,0.004296
3,29,8118191,0.003780
3,30,8098852,0.003771
3,31,7101973,0.003307
3,32,11260255,0.005243
3,33,10655512,0.004962
3,34,9864481,0.004594
3,35,9321353,0.004341
3,36,9872404,0.004597
3,37,9371028,0.004364
3,38,8617659,0.004013
3,39,8167477,0.003803
3,40,10268303,0.004782
3,41,9700727,0.004517
3,42,9027976,0.004204
3,43,8523226,0.003969
3,44,8957896,0.004171
3,45,8495024,0.003956
3,46,7845688,0.003653
3,47,7431274,0.003460
3,48,10183384,0.004742
3,49,9615831,0.004478
3,50,8957874,0.004171
3,51,8435937,0.003928
3,52,8961091,0.004173
3,53,8486147,0.003952
3,54,7847855,0.003654
3,55,7415271,0.003453
3,56,9248010,0.004306
3,57,8710189,0.004056
3,58,8158351,0.003799
3,59,7664780,0.003569
3,60,8097189,0.003771
3,61,7653649,0.003564
3,62,7110404,0.003311
3,63,6706000,0.003123
3,64,11290436,0.005258
3,65,9849801,0.004587
3,66,10711786,0.004988
3,67,9301102,0.004331
3,68,9864448,0.004593
3,69,8652658,0.004029
3,70,9345126,0.004352
3,71,8156584,0.003798
3,72,10267495,0.004781
3,73,8991209,0.004187
3,74,9760819,0.004545
3,75,8491493,0.003954
3,76,8940731,0.004163
3,77,7859867,0.003660
3,78,8480069,0.003949
3,79,7406175,0.003449
3,80,10283110,0.004788
3,81,8981120,0.004182
3,82,9752584,0.004541
3,83,8471685,0.003945
3,84,9013091,0.004197
3,85,7924619,0.003690
3,86,8544998,0.003979
3,87,7455942,0.003472
3,88,9310492,0.004336
3,89,8164887,0.003802
3,90,8837763,0.004115
3,91,7711063,0.003591
3,92,8129566,0.003786
3,93,7158504,0.003333
3,94,7708329,0.003589
3,95,6749765,0.003143
3,96,9832864,0.004579
3,97,9314312,0.004337
3,98,9318942,0.004339
3,99,8761810,0.004080
3,100,8620232,0.004014
3,101,8198746,0.003818
3,102,8164226,0.003802
3,103,7695859,0.003584
3,104,8982282,0.004183
3,105,8502519,0.003959
3,106,8520087,0.003967
3,107,8008988,0.003729
3,108,7843055,0.003652
3,109,7454102,0.003471
3,110,7427984,0.003459
3,111,7001243,0.003260
3,112,8927613,0.004157
3,113,8440490,0.003930
3,114,8455114,0.003937
3,115,7928070,0.003692
3,116,7861048,0.003661
3,117,7453591,0.003471
3,118,7425540,0.003458
3,119,6987140,0.003254
3,120,8120064,0.003781
3,121,7659404,0.003567
3,122,7703876,0.003587
3,123,7205505,0.003355
3,124,7110465,0.003311
3,125,6731782,0.003135
3,126,6724955,0.003132
3,127,6316012,0.002941
3,128,11250120,0.005239
3,129,9852622,0.004588
3,130,9851686,0.004588
3,131,8606585,0.004008
3,132,10676142,0.004971
3,133,9376070,0.004366
3,134,9301795,0.004331
3,135,8133330,0.003787
3,136,10208370,0.004754
3,137,8961547,0.004173
3,138,8971872,0.004178
3,139,7852942,0.003657
3,140,9650576,0.004494
3,141,8491702,0.003954
3,142,8430596,0.003926
3,143,7385247,0.003439
3,144,10226834,0.004762
3,145,8962166,0.004173
3,146,8980205,0.004182
3,147,7835806,0.003649
3,148,9718669,0.004526
3,149,8548780,0.003981
3,150,8489082,0.003953
3,151,7429669,0.003460
3,152,9240474,0.004303
3,153,8121765,0.003782
3,154,8142588,0.003792
3,155,7130131,0.003320
3,156,8737055,0.004069
3,157,7697764,0.003585
3,158,7651825,0.003563
3,159,6711238,0.003125
3,160,9882842,0.004602
3,161,9362482,0.004360
3,162,8652540,0.004029
3,163,8191340,0.003814
3,164,9385097,0.004370
3,165,8883545,0.004137
3,166,8182688,0.003810
3,167,7721279,0.003596
3,168,8997502,0.004190
3,169,8518611,0.003967
3,170,7912903,0.003685
3,171,7482670,0.003484
3,172,8516305,0.003966
3,173,8052678,0.003750
3,174,7442134,0.003466
3,175,7021112,0.003269
3,176,8953455,0.004169
3,177,8465022,0.003942
3,178,7868962,0.003664
3,179,7424085,0.003457
3,180,8518984,0.003967
3,181,8048363,0.003748
3,182,7446931,0.003468
3,183,7013988,0.003266
3,184,8115233,0.003779
3,185,7663302,0.003569
3,186,7162065,0.003335
3,187,6749258,0.003143
3,188,7687136,0.003580
3,189,7251224,0.003377
3,190,6739170,0.003138
3,191,6335086,0.002950
3,192,9817486,0.004572
3,193,8595191,0.004002
3,194,9339178,0.004349
3,195,8132977,0.003787
3,196,9306411,0.004334
3,197,8166328,0.003803
3,198,8790833,0.004094
3,199,7665077,0.003569
3,200,8926643,0.004157
3,201,7839440,0.003651
3,202,8500307,0.003958
3,203,7423620,0.003457
3,204,8420151,0.003921
3,205,7411201,0.003451
3,206,7958594,0.003706
3,207,6957634,0.003240
3,208,8966363,0.004175
3,209,7861494,0.003661
3,210,8517140,0.003966
3,211,7424457,0.003457
3,212,8502030,0.003959
3,213,7475796,0.003481
3,214,8024333,0.003737
3,215,7002950,0.003261
3,216,8110381,0.003777
3,217,7131626,0.003321
3,218,7715072,0.003593
3,219,6747782,0.003142
3,220,7655504,0.003565
3,221,6746478,0.003142
3,222,7230572,0.003367
3,223,6326802,0.002946
3,224,8592620,0.004001
3,225,8153532,0.003797
3,226,8158529,0.003799
3,227,7685613,0.003579
3,228,8143388,0.003792
3,229,7725373,0.003597
3,230,7676643,0.003575
3,231,7211218,0.003358
3,232,7845306,0.003653
3,233,7438390,0.003464
3,234,7456793,0.003472
3,235,7016267,0.003267
3,236,7397430,0.003445
3,237,7011318,0.003265
3,238,6979790,0.003250
3,239,6557720,0.003054
3,240,7817176,0.003640
3,241,7404077,0.003448
3,242,7412246,0.003452
3,243,6957942,0.003240
3,244,7420402,0.003455
3,245,7017898,0.003268
3,246,6989477,0.003255
3,247,6552366,0.003051
3,248,7100718,0.003307
3,249,6712856,0.003126
3,250,6747737,0.003142
3,251,6329972,0.002948
3,252,6704823,0.003122
3,253,6334407,0.002950
3,254,6314256,0.002940
3,255,5913954,0.002754