0,File-bytes,Entropy,Chi-square,Mean,Monte-Carlo-Pi,Serial-Correlation
1,10737418240,8.000000,666.310851,127.492066,3.141775,0.000002
2,Value,Occurrences,Fraction
3,0,41960872,0.003908
3,1,41953842,0.003907
3,2,41957717,0.003908
3,3,41948171,0.003907
3,4,41953059,0.003907
3,5,41951064,0.003907
3,6,41952707,0.003907
3,7,41942765,0.003906
3,8,41962811,0.003908
3,9,41949898,0.003907
3,10,41961528,0.003908
3,11,41932379,0.003905
3,12,41942642,0.003906
3,13,41947029,0.003907
3,14,41945540,0.003906
3,15,41944925,0.003906
3,16,41958379,0.003908
3,17,41964250,0.003908
3,18,41950435,0.003907
3,19,41942913,0.003906
3,20,41948238,0.003907
3,21,41945231,0.003906
3,22,41951615,0.003907
3,23,41944532,0.003906
3,24,41948604,0.003907
3,25,41954042,0.003907
3,26,41946666,0.003907
3,27,41934262,0.003905
3,28,41947958,0.003907
3,29,41931930,0.003905
3,30,41939378,0.003906
3,31,41932205,0.003905
3,32,41946214,0.003907
3,33,41949945,0.003907
3,34,41946927,0.003907
3,35,41954028,0.003907
3,36,41967792,0.003909
3,37,41948552,0.003907
3,38,41964863,0.003908
3,39,41951215,0.003907
3,40,41941692,0.003906
3,41,41947399,0.003907
3,42,41955252,0.003907
3,43,41941888,0.003906
3,44,41945775,0.003907
3,45,41946164,0.003907
3,46,41940603,0.003906
3,47,41935853,0.003906
3,48,41955502,0.003907
3,49,41957411,0.003908
3,50,41959843,0.003908
3,51,41932394,0.003905
3,52,41950226,0.003907
3,53,41958517,0.003908
3,54,41941090,0.003906
3,55,41925243,0.003905
3,56,41957589,0.003908
3,57,41951940,0.003907
3,58,41938800,0.003906
3,59,41947661,0.003907
3,60,41935945,0.003906
3,61,41945261,0.003906
3,62,41925507,0.003905
3,63,41927707,0.003905
3,64,41951913,0.003907
3,65,41953050,0.003907
3,66,41956094,0.003907
3,67,41960369,0.003908
3,68,41960582,0.003908
3,69,41939702,0.003906
3,70,41947569,0.003907
3,71,41942749,0.003906
3,72,41951013,0.003907
3,73,41946293,0.003907
3,74,41944748,0.003906
3,75,41947234,0.003907
3,76,41947401,0.003907
3,77,41937124,0.003906
3,78,41939193,0.003906
3,79,41932668,0.003905
3,80,41957443,0.003908
3,81,41957678,0.003908
3,82,41959197,0.003908
3,83,41948945,0.003907
3,84,41947688,0.003907
3,85,41955347,0.003907
3,86,41945791,0.003907
3,87,41934842,0.003905
3,88,41949043,0.003907
3,89,41932830,0.003905
3,90,41948270,0.003907
3,91,41921896,0.003904
3,92,41946245,0.003907
3,93,41934329,0.003905
3,94,41935839,0.003906
3,95,41929458,0.003905
3,96,41961480,0.003908
3,97,41945507,0.003906
3,98,41942401,0.003906
3,99,41938531,0.003906
3,100,41948344,0.003907
3,101,41957127,0.003908
3,102,41945297,0.003906
3,103,41944715,0.003906
3,104,41935120,0.003906
3,105,41940343,0.003906
3,106,41953024,0.003907
3,107,41930985,0.003905
3,108,41950040,0.003907
3,109,41935389,0.003906
3,110,41939500,0.003906
3,111,41937970,0.003906
3,112,41946230,0.003907
3,113,41952531,0.003907
3,114,41949105,0.003907
3,115,41929670,0.003905
3,116,41937852,0.003906
3,117,41931458,0.003905
3,118,41942991,0.003906
3,119,41939067,0.003906
3,120,41942571,0.003906
3,121,41951439,0.003907
3,122,41936123,0.003906
3,123,41931215,0.003905
3,124,41936410,0.003906
3,125,41934317,0.003905
3,126,41934080,0.003905
3,127,41928352,0.003905
3,128,41962555,0.003908
3,129,41953756,0.003907
3,130,41952056,0.003907
3,131,41950320,0.003907
3,132,41958219,0.003908
3,133,41946580,0.003907
3,134,41946139,0.003907
3,135,41952168,0.003907
3,136,41965608,0.003908
3,137,41938828,0.003906
3,138,41938011,0.003906
3,139,41937833,0.003906
3,140,41946742,0.003907
3,141,41957369,0.003908
3,142,41951738,0.003907
3,143,41931660,0.003905
3,144,41955142,0.003907
3,145,41951434,0.003907
3,146,41939239,0.003906
3,147,41941089,0.003906
3,148,41949163,0.003907
3,149,41932471,0.003905
3,150,41948615,0.003907
3,151,41949060,0.003907
3,152,41956203,0.003907
3,153,41945665,0.003906
3,154,41946557,0.003907
3,155,41931902,0.003905
3,156,41934609,0.003905
3,157,41931490,0.003905
3,158,41929834,0.003905
3,159,41933359,0.003905
3,160,41959156,0.003908
3,161,41951866,0.003907
3,162,41936597,0.003906
3,163,41949620,0.003907
3,164,41959773,0.003908
3,165,41932627,0.003905
3,166,41957561,0.003908
3,167,41939897,0.003906
3,168,41937252,0.003906
3,169,41942666,0.003906
3,170,41947172,0.003907
3,171,41942560,0.003906
3,172,41952611,0.003907
3,173,41936357,0.003906
3,174,41951934,0.003907
3,175,41925171,0.003905
3,176,41944969,0.003906
3,177,41941854,0.003906
3,178,41947585,0.003907
3,179,41938790,0.003906
3,180,41951950,0.003907
3,181,41940271,0.003906
3,182,41941694,0.003906
3,183,41936253,0.003906
3,184,41946734,0.003907
3,185,41932098,0.003905
3,186,41940067,0.003906
3,187,41935334,0.003906
3,188,41931701,0.003905
3,189,41948673,0.003907
3,190,41925612,0.003905
3,191,41930355,0.003905
3,192,41958036,0.003908
3,193,41944590,0.003906
3,194,41950533,0.003907
3,195,41950839,0.003907
3,196,41943335,0.003906
3,197,41946146,0.003907
3,198,41945458,0.003906
3,199,41944744,0.003906
3,200,41955530,0.003907
3,201,41944899,0.003906
3,202,41950690,0.003907
3,203,41935152,0.003906
3,204,41938523,0.003906
3,205,41950332,0.003907
3,206,41955306,0.003907
3,207,41929484,0.003905
3,208,41951417,0.003907
3,209,41946464,0.003907
3,210,41943666,0.003906
3,211,41925426,0.003905
3,212,41942166,0.003906
3,213,41932950,0.003905
3,214,41941954,0.003906
3,215,41927647,0.003905
3,216,41935402,0.003906
3,217,41922785,0.003904
3,218,41929251,0.003905
3,219,41931534,0.003905
3,220,41941478,0.003906
3,221,41932845,0.003905
3,222,41931598,0.003905
3,223,41922096,0.003904
3,224,41940130,0.003906
3,225,41934755,0.003905
3,226,41942694,0.003906
3,227,41948215,0.003907
3,228,41938454,0.003906
3,229,41925035,0.003905
3,230,41937235,0.003906
3,231,41940969,0.003906
3,232,41940671,0.003906
3,233,41934428,0.003905
3,234,41928383,0.003905
3,235,41927600,0.003905
3,236,41951451,0.003907
3,237,41944981,0.003906
3,238,41932787,0.003905
3,239,41942206,0.003906
3,240,41954790,0.003907
3,241,41944699,0.003906
3,242,41932592,0.003905
3,243,41932810,0.003905
3,244,41928429,0.003905
3,245,41920872,0.003904
3,246,41930000,0.003905
3,247,41925969,0.003905
3,248,41920719,0.003904
3,249,41929116,0.003905
3,250,41918668,0.003904
3,251,41922580,0.003904
3,252,41929571,0.003905
3,253,41912631,0.003903
3,254,41923243,0.003904
3,255,41922995,0.003904