0,File-bytes,Entropy,Chi-square,Mean,Monte-Carlo-Pi,Serial-Correlation
1,10737418240,7.380125,14073326431.082241,79.501254,3.961493,-0.448031
2,Value,Occurrences,Fraction
3,0,58080645,0.005409
3,1,26783874,0.002494
3,2,28221053,0.002628
3,3,29940728,0.002788
3,4,32037837,0.002984
3,5,34461305,0.003209
3,6,37303557,0.003474
3,7,40570441,0.003778
3,8,44416015,0.004137
3,9,48730205,0.004538
3,10,53643957,0.004996
3,11,59131672,0.005507
3,12,65222104,0.006074
3,13,71904343,0.006697
3,14,78867144,0.007345
3,15,86968278,0.008100
3,16,95306522,0.008876
3,17,104109524,0.009696
3,18,113293075,0.010551
3,19,122718817,0.011429
3,20,132193106,0.012311
3,21,141289739,0.013159
3,22,151155194,0.014077
3,23,160422021,0.014940
3,24,169171874,0.015755
3,25,177398718,0.016522
3,26,184760411,0.017207
3,27,191172761,0.017804
3,28,195689094,0.018225
3,29,200845244,0.018705
3,30,203844355,0.018984
3,31,205541492,0.019143
3,32,205978990,0.019183
3,33,204928066,0.019085
3,34,202414587,0.018851
3,35,197977983,0.018438
3,36,193471824,0.018018
3,37,187718032,0.017483
3,38,180609261,0.016821
3,39,172789015,0.016092
3,40,164184832,0.015291
3,41,154885721,0.014425
3,42,145319690,0.013534
3,43,135050318,0.012578
3,44,125907920,0.011726
3,45,116209671,0.010823
3,46,106725191,0.009940
3,47,97615283,0.009091
3,48,88905368,0.008280
3,49,80695222,0.007515
3,50,72802775,0.006780
3,51,66210065,0.006166
3,52,59816247,0.005571
3,53,54104493,0.005039
3,54,49019698,0.004565
3,55,44486859,0.004143
3,56,40472820,0.003769
3,57,37127461,0.003458
3,58,34269560,0.003192
3,59,31800790,0.002962
3,60,29737048,0.002769
3,61,27985341,0.002606
3,62,26536278,0.002471
3,63,38769450,0.003611
3,64,20849197,0.001942
3,65,20841131,0.001941
3,66,20865783,0.001943
3,67,20853791,0.001942
3,68,20859956,0.001943
3,69,20876592,0.001944
3,70,20864072,0.001943
3,71,20853131,0.001942
3,72,20860584,0.001943
3,73,20852013,0.001942
3,74,20846458,0.001941
3,75,20878423,0.001944
3,76,20840014,0.001941
3,77,20871790,0.001944
3,78,20872382,0.001944
3,79,20851881,0.001942
3,80,20869971,0.001944
3,81,20855993,0.001942
3,82,20834096,0.001940
3,83,20852527,0.001942
3,84,20849344,0.001942
3,85,20846535,0.001941
3,86,20865685,0.001943
3,87,20846513,0.001941
3,88,20858466,0.001943
3,89,20853621,0.001942
3,90,20851003,0.001942
3,91,20832631,0.001940
3,92,20858799,0.001943
3,93,20852447,0.001942
3,94,20862504,0.001943
3,95,20874203,0.001944
3,96,20863009,0.001943
3,97,20859932,0.001943
3,98,20865602,0.001943
3,99,20847234,0.001942
3,100,20859080,0.001943
3,101,20860393,0.001943
3,102,20854346,0.001942
3,103,20854249,0.001942
3,104,20874867,0.001944
3,105,20864030,0.001943
3,106,20855440,0.001942
3,107,20860030,0.001943
3,108,20844396,0.001941
3,109,20845784,0.001941
3,110,20856418,0.001942
3,111,20849380,0.001942
3,112,20848767,0.001942
3,113,20864835,0.001943
3,114,20856355,0.001942
3,115,20855511,0.001942
3,116,20856446,0.001942
3,117,20844774,0.001941
3,118,20839513,0.001941
3,119,20863438,0.001943
3,120,20850348,0.001942
3,121,20853088,0.001942
3,122,20879110,0.001945
3,123,20854769,0.001942
3,124,20858961,0.001943
3,125,20859939,0.001943
3,126,20854158,0.001942
3,127,20847166,0.001942
3,128,20856155,0.001942
3,129,20857187,0.001942
3,130,20843372,0.001941
3,131,20881150,0.001945
3,132,20848722,0.001942
3,133,20862872,0.001943
3,134,20855350,0.001942
3,135,20841465,0.001941
3,136,20855372,0.001942
3,137,20865622,0.001943
3,138,20846521,0.001941
3,139,20848188,0.001942
3,140,20862318,0.001943
3,141,20853820,0.001942
3,142,20872791,0.001944
3,143,20844332,0.001941
3,144,20842178,0.001941
3,145,20847257,0.001942
3,146,20861934,0.001943
3,147,20854466,0.001942
3,148,20873733,0.001944
3,149,20859782,0.001943
3,150,20855259,0.001942
3,151,20865190,0.001943
3,152,20848315,0.001942
3,153,20847697,0.001942
3,154,20860096,0.001943
3,155,20862982,0.001943
3,156,20841331,0.001941
3,157,20875449,0.001944
3,158,20863812,0.001943
3,159,20858036,0.001943
3,160,20853665,0.001942
3,161,20833081,0.001940
3,162,20842146,0.001941
3,163,20847610,0.001942
3,164,20845613,0.001941
3,165,20853153,0.001942
3,166,20885759,0.001945
3,167,20841109,0.001941
3,168,20856027,0.001942
3,169,20854558,0.001942
3,170,20849916,0.001942
3,171,20839053,0.001941
3,172,20870132,0.001944
3,173,20848592,0.001942
3,174,20862915,0.001943
3,175,20878557,0.001944
3,176,20854269,0.001942
3,177,20856847,0.001942
3,178,20866332,0.001943
3,179,20850571,0.001942
3,180,20843936,0.001941
3,181,20868335,0.001944
3,182,20836655,0.001941
3,183,20881413,0.001945
3,184,20863256,0.001943
3,185,20841297,0.001941
3,186,20861701,0.001943
3,187,20847464,0.001942
3,188,20836999,0.001941
3,189,20848998,0.001942
3,190,20858722,0.001943
3,191,20845511,0.001941
3,192,20859425,0.001943
3,193,20858941,0.001943
3,194,20846671,0.001941
3,195,20869945,0.001944
3,196,20847382,0.001942
3,197,20845087,0.001941
3,198,20859924,0.001943
3,199,20850727,0.001942
3,200,20850314,0.001942
3,201,20869561,0.001944
3,202,20868923,0.001944
3,203,20852526,0.001942
3,204,20882744,0.001945
3,205,20844689,0.001941
3,206,20845039,0.001941
3,207,20849694,0.001942
3,208,20860775,0.001943
3,209,20864613,0.001943
3,210,20870017,0.001944
3,211,20864647,0.001943
3,212,20849260,0.001942
3,213,20856857,0.001942
3,214,20825286,0.001940
3,215,20853082,0.001942
3,216,20846474,0.001941
3,217,20852325,0.001942
3,218,20843029,0.001941
3,219,20868248,0.001944
3,220,20852624,0.001942
3,221,20862367,0.001943
3,222,20869698,0.001944
3,223,20824640,0.001939
3,224,20847342,0.001942
3,225,20858908,0.001943
3,226,20858162,0.001943
3,227,20856410,0.001942
3,228,20882712,0.001945
3,229,20838704,0.001941
3,230,20863936,0.001943
3,231,20854162,0.001942
3,232,20850778,0.001942
3,233,20842095,0.001941
3,234,20859934,0.001943
3,235,20847496,0.001942
3,236,20863140,0.001943
3,237,20872509,0.001944
3,238,20839590,0.001941
3,239,20852728,0.001942
3,240,20848370,0.001942
3,241,20835959,0.001940
3,242,20854422,0.001942
3,243,20853368,0.001942
3,244,20846594,0.001941
3,245,20873137,0.001944
3,246,20854042,0.001942
3,247,20870200,0.001944
3,248,20858466,0.001943
3,249,20852104,0.001942
3,250,20837604,0.001941
3,251,20875205,0.001944
3,252,20850253,0.001942
3,253,20858390,0.001943
3,254,20864227,0.001943
3,255,34270945,0.003192