#=============================================================================#
#            dieharder version 3.31.1 Copyright 2003 Robert G. Brown          #
#=============================================================================#
   rng_name    |           filename             |rands/second|
 file_input_raw|        /home/lab/bytes/ibmq.dat|  3.57e+07  |
#=============================================================================#
        test_name   |ntup| tsamples |psamples|  p-value |Assessment
#=============================================================================#
   diehard_birthdays|   0|       100|     100|0.87942243|  PASSED  
      diehard_operm5|   0|   1000000|     100|0.00000000|  FAILED  
  diehard_rank_32x32|   0|     40000|     100|0.80855759|  PASSED  
    diehard_rank_6x8|   0|    100000|     100|0.00000000|  FAILED  
   diehard_bitstream|   0|   2097152|     100|0.00000000|  FAILED  
# The file file_input_raw was rewound 1 times
        diehard_opso|   0|   2097152|     100|0.00000000|  FAILED  
# The file file_input_raw was rewound 1 times
        diehard_oqso|   0|   2097152|     100|0.00000000|  FAILED  
# The file file_input_raw was rewound 1 times
         diehard_dna|   0|   2097152|     100|0.00000000|  FAILED  
# The file file_input_raw was rewound 1 times
diehard_count_1s_str|   0|    256000|     100|0.00000000|  FAILED  
# The file file_input_raw was rewound 1 times
diehard_count_1s_byt|   0|    256000|     100|0.00000000|  FAILED  
# The file file_input_raw was rewound 1 times
 diehard_parking_lot|   0|     12000|     100|0.00000000|  FAILED  
# The file file_input_raw was rewound 1 times
    diehard_2dsphere|   2|      8000|     100|0.90360950|  PASSED  
# The file file_input_raw was rewound 1 times
    diehard_3dsphere|   3|      4000|     100|0.67767112|  PASSED  
# The file file_input_raw was rewound 2 times
     diehard_squeeze|   0|    100000|     100|0.00000000|  FAILED  
# The file file_input_raw was rewound 2 times
        diehard_sums|   0|       100|     100|0.00197332|   WEAK   
# The file file_input_raw was rewound 2 times
        diehard_runs|   0|    100000|     100|0.83045827|  PASSED  
        diehard_runs|   0|    100000|     100|0.66038179|  PASSED  
# The file file_input_raw was rewound 2 times
       diehard_craps|   0|    200000|     100|0.00000000|  FAILED  
       diehard_craps|   0|    200000|     100|0.00000000|  FAILED  
# The file file_input_raw was rewound 6 times
 marsaglia_tsang_gcd|   0|  10000000|     100|0.00000000|  FAILED  
 marsaglia_tsang_gcd|   0|  10000000|     100|0.00000000|  FAILED  
# The file file_input_raw was rewound 6 times
         sts_monobit|   1|    100000|     100|0.00000000|  FAILED  
# The file file_input_raw was rewound 6 times
            sts_runs|   2|    100000|     100|0.00000683|   WEAK   
# The file file_input_raw was rewound 6 times
          sts_serial|   1|    100000|     100|0.00000000|  FAILED  
          sts_serial|   2|    100000|     100|0.00000000|  FAILED  
          sts_serial|   3|    100000|     100|0.00000000|  FAILED  
          sts_serial|   3|    100000|     100|0.00000000|  FAILED  
          sts_serial|   4|    100000|     100|0.00000000|  FAILED  
          sts_serial|   4|    100000|     100|0.00000000|  FAILED  
          sts_serial|   5|    100000|     100|0.00000000|  FAILED  
          sts_serial|   5|    100000|     100|0.00000000|  FAILED  
          sts_serial|   6|    100000|     100|0.00000000|  FAILED  
          sts_serial|   6|    100000|     100|0.00000000|  FAILED  
          sts_serial|   7|    100000|     100|0.00000000|  FAILED  
          sts_serial|   7|    100000|     100|0.00000000|  FAILED  
          sts_serial|   8|    100000|     100|0.00000000|  FAILED  
          sts_serial|   8|    100000|     100|0.00000000|  FAILED  
          sts_serial|   9|    100000|     100|0.00000000|  FAILED  
          sts_serial|   9|    100000|     100|0.00000000|  FAILED  
          sts_serial|  10|    100000|     100|0.00000000|  FAILED  
          sts_serial|  10|    100000|     100|0.00000000|  FAILED  
          sts_serial|  11|    100000|     100|0.00000000|  FAILED  
          sts_serial|  11|    100000|     100|0.00000000|  FAILED  
          sts_serial|  12|    100000|     100|0.00000000|  FAILED  
          sts_serial|  12|    100000|     100|0.00000000|  FAILED  
          sts_serial|  13|    100000|     100|0.00000000|  FAILED  
          sts_serial|  13|    100000|     100|0.00000000|  FAILED  
          sts_serial|  14|    100000|     100|0.00000000|  FAILED  
          sts_serial|  14|    100000|     100|0.00000000|  FAILED  
          sts_serial|  15|    100000|     100|0.00000000|  FAILED  
          sts_serial|  15|    100000|     100|0.00000589|   WEAK   
          sts_serial|  16|    100000|     100|0.00000000|  FAILED  
          sts_serial|  16|    100000|     100|0.05636768|  PASSED  
# The file file_input_raw was rewound 6 times
         rgb_bitdist|   1|    100000|     100|0.00000000|  FAILED  
# The file file_input_raw was rewound 6 times
         rgb_bitdist|   2|    100000|     100|0.00000000|  FAILED  
# The file file_input_raw was rewound 6 times
         rgb_bitdist|   3|    100000|     100|0.00000000|  FAILED  
# The file file_input_raw was rewound 6 times
         rgb_bitdist|   4|    100000|     100|0.00000000|  FAILED  
# The file file_input_raw was rewound 6 times
         rgb_bitdist|   5|    100000|     100|0.00000000|  FAILED  
# The file file_input_raw was rewound 6 times
         rgb_bitdist|   6|    100000|     100|0.00000000|  FAILED  
# The file file_input_raw was rewound 7 times
         rgb_bitdist|   7|    100000|     100|0.00000000|  FAILED  
# The file file_input_raw was rewound 7 times
         rgb_bitdist|   8|    100000|     100|0.00000000|  FAILED  
# The file file_input_raw was rewound 7 times
         rgb_bitdist|   9|    100000|     100|0.00000000|  FAILED  
# The file file_input_raw was rewound 8 times
         rgb_bitdist|  10|    100000|     100|0.00000000|  FAILED  
# The file file_input_raw was rewound 8 times
         rgb_bitdist|  11|    100000|     100|0.00000000|  FAILED  
# The file file_input_raw was rewound 8 times
         rgb_bitdist|  12|    100000|     100|0.00000000|  FAILED  
# The file file_input_raw was rewound 9 times
rgb_minimum_distance|   2|     10000|    1000|0.02005589|  PASSED  
# The file file_input_raw was rewound 9 times
rgb_minimum_distance|   3|     10000|    1000|0.00027034|   WEAK   
# The file file_input_raw was rewound 9 times
rgb_minimum_distance|   4|     10000|    1000|0.06931558|  PASSED  
# The file file_input_raw was rewound 9 times
rgb_minimum_distance|   5|     10000|    1000|0.00002039|   WEAK   
# The file file_input_raw was rewound 9 times
    rgb_permutations|   2|    100000|     100|0.37927092|  PASSED  
# The file file_input_raw was rewound 9 times
    rgb_permutations|   3|    100000|     100|0.35911251|  PASSED  
# The file file_input_raw was rewound 9 times
    rgb_permutations|   4|    100000|     100|0.14730690|  PASSED  
# The file file_input_raw was rewound 9 times
    rgb_permutations|   5|    100000|     100|0.00000000|  FAILED  
# The file file_input_raw was rewound 9 times
      rgb_lagged_sum|   0|   1000000|     100|0.00000000|  FAILED  
# The file file_input_raw was rewound 10 times
      rgb_lagged_sum|   1|   1000000|     100|0.00000000|  FAILED  
# The file file_input_raw was rewound 10 times
      rgb_lagged_sum|   2|   1000000|     100|0.00000000|  FAILED  
# The file file_input_raw was rewound 11 times
      rgb_lagged_sum|   3|   1000000|     100|0.00000000|  FAILED  
# The file file_input_raw was rewound 12 times
      rgb_lagged_sum|   4|   1000000|     100|0.00000000|  FAILED  
# The file file_input_raw was rewound 13 times
      rgb_lagged_sum|   5|   1000000|     100|0.00000000|  FAILED  
# The file file_input_raw was rewound 14 times
      rgb_lagged_sum|   6|   1000000|     100|0.00000000|  FAILED  
# The file file_input_raw was rewound 16 times
      rgb_lagged_sum|   7|   1000000|     100|0.00000000|  FAILED  
# The file file_input_raw was rewound 17 times
      rgb_lagged_sum|   8|   1000000|     100|0.00000000|  FAILED  
# The file file_input_raw was rewound 19 times
      rgb_lagged_sum|   9|   1000000|     100|0.00000000|  FAILED  
# The file file_input_raw was rewound 21 times
      rgb_lagged_sum|  10|   1000000|     100|0.00000000|  FAILED  
# The file file_input_raw was rewound 24 times
      rgb_lagged_sum|  11|   1000000|     100|0.00000000|  FAILED  
# The file file_input_raw was rewound 26 times
      rgb_lagged_sum|  12|   1000000|     100|0.00000000|  FAILED  
# The file file_input_raw was rewound 29 times
      rgb_lagged_sum|  13|   1000000|     100|0.00000000|  FAILED  
# The file file_input_raw was rewound 31 times
      rgb_lagged_sum|  14|   1000000|     100|0.00000000|  FAILED  
# The file file_input_raw was rewound 34 times
      rgb_lagged_sum|  15|   1000000|     100|0.00000000|  FAILED  
# The file file_input_raw was rewound 38 times
      rgb_lagged_sum|  16|   1000000|     100|0.00000000|  FAILED  
# The file file_input_raw was rewound 41 times
      rgb_lagged_sum|  17|   1000000|     100|0.00000000|  FAILED  
# The file file_input_raw was rewound 44 times
      rgb_lagged_sum|  18|   1000000|     100|0.00000000|  FAILED  
# The file file_input_raw was rewound 48 times
      rgb_lagged_sum|  19|   1000000|     100|0.00000000|  FAILED  
# The file file_input_raw was rewound 52 times
      rgb_lagged_sum|  20|   1000000|     100|0.00000000|  FAILED  
# The file file_input_raw was rewound 56 times
      rgb_lagged_sum|  21|   1000000|     100|0.00000000|  FAILED  
# The file file_input_raw was rewound 60 times
      rgb_lagged_sum|  22|   1000000|     100|0.00000000|  FAILED  
# The file file_input_raw was rewound 65 times
      rgb_lagged_sum|  23|   1000000|     100|0.00000000|  FAILED  
# The file file_input_raw was rewound 70 times
      rgb_lagged_sum|  24|   1000000|     100|0.00000000|  FAILED  
# The file file_input_raw was rewound 74 times
      rgb_lagged_sum|  25|   1000000|     100|0.00000000|  FAILED  
# The file file_input_raw was rewound 79 times
      rgb_lagged_sum|  26|   1000000|     100|0.00000000|  FAILED  
# The file file_input_raw was rewound 85 times
      rgb_lagged_sum|  27|   1000000|     100|0.00000000|  FAILED  
# The file file_input_raw was rewound 90 times
      rgb_lagged_sum|  28|   1000000|     100|0.00000000|  FAILED  
# The file file_input_raw was rewound 96 times
      rgb_lagged_sum|  29|   1000000|     100|0.00000000|  FAILED  
# The file file_input_raw was rewound 101 times
      rgb_lagged_sum|  30|   1000000|     100|0.00000000|  FAILED  
# The file file_input_raw was rewound 107 times
      rgb_lagged_sum|  31|   1000000|     100|0.00000000|  FAILED  
# The file file_input_raw was rewound 114 times
      rgb_lagged_sum|  32|   1000000|     100|0.00000000|  FAILED  
# The file file_input_raw was rewound 114 times
     rgb_kstest_test|   0|     10000|    1000|0.00000000|  FAILED  
# The file file_input_raw was rewound 114 times
     dab_bytedistrib|   0|  51200000|       1|0.00000000|  FAILED  
# The file file_input_raw was rewound 114 times
             dab_dct| 256|     50000|       1|0.00000000|  FAILED  
# The file file_input_raw was rewound 114 times
Preparing to run test 207.  ntuple = 0
        dab_filltree|  32|  15000000|       1|0.00000000|  FAILED  
        dab_filltree|  32|  15000000|       1|0.00002455|   WEAK   
# The file file_input_raw was rewound 114 times
Preparing to run test 208.  ntuple = 0
       dab_filltree2|   0|   5000000|       1|0.00000000|  FAILED  
       dab_filltree2|   1|   5000000|       1|0.00000000|  FAILED  
# The file file_input_raw was rewound 114 times
Preparing to run test 209.  ntuple = 0
        dab_monobit2|  12|  65000000|       1|1.00000000|  FAILED  